<svg id="Layer_1" data-name="Layer 1" xmlns="http://www.w3.org/2000/svg" viewBox="0 0 334.63959 144">
    <defs>
        <style>.cls-1{fill:#0a32ff;}</style>
    </defs>
    <path id="Logo" class="cls-1"
        d="M308.54263,128.76173a3.02575,3.02575,0,0,1-3.2448,2.68555c-2.24869,0-3.5013-1.77344-3.63151-5.10156h12.36459a12.86347,12.86347,0,0,0,.08593-1.77344c.04427-8.21354-4.32291-11.06771-8.90494-11.06771-5.14584,0-9.33855,3.71875-9.33855,11.5,0,7.22,3.71745,10.98177,9.46745,10.98177,4.74024,0,8.20215-2.49772,8.8291-7.22461Zm-3.33073-10.7168c1.77213,0,3.19921,1.38282,3.24218,4.27995h-6.74479C301.92544,119.64389,303.22231,118.04493,305.2119,118.04493Zm-36.72,10.7168a3.02575,3.02575,0,0,1-3.2448,2.68555c-2.24869,0-3.5013-1.77344-3.63151-5.10156h12.36459a12.862,12.862,0,0,0,.08594-1.77344c.04427-8.21354-4.32292-11.06771-8.90495-11.06771-5.14584,0-9.33854,3.71875-9.33854,11.5,0,7.22,3.71744,10.98177,9.46744,10.98177,4.74024,0,8.20215-2.49772,8.82911-7.22461Zm-3.33073-10.7168c1.77213,0,3.19922,1.38282,3.24218,4.27995h-6.74479C261.87472,119.64389,263.17159,118.04493,265.16118,118.04493Zm22.6471,50.32943V157.09051h-3.6638v-4.66927h1.07005c2.20443,0,3.19922-.82032,3.19922-3.069v-2.55079h5.31771v5.6198h5.1875v4.66927h-5.1875v10.33333c0,1.38281.60547,2.3776,2.55078,2.3776a8.79532,8.79532,0,0,0,1.90234-.21614v4.41016a15.27071,15.27071,0,0,1-3.71744.47526C289.62469,174.47072,287.80828,171.834,287.80828,168.37436Zm26.62815,0V157.09051h-3.6638v-4.66927h1.07c2.20442,0,3.19922-.82032,3.19922-3.069v-2.55079h5.3177v5.6198h5.1875v4.66927h-5.1875v10.33333c0,1.38281.60547,2.3776,2.55079,2.3776a8.7954,8.7954,0,0,0,1.90234-.21614v4.41016a15.2708,15.2708,0,0,1-3.71745.47526C316.25283,174.47072,314.43643,171.834,314.43643,168.37436Zm38.29135,0V157.09051H349.064v-4.66927h1.07c2.20443,0,3.19922-.82032,3.19922-3.069v-2.55079H358.651v5.6198h5.1875v4.66927H358.651v10.33333c0,1.38281.60547,2.3776,2.55078,2.3776a8.79532,8.79532,0,0,0,1.90234-.21614v4.41016a15.27071,15.27071,0,0,1-3.71744.47526C354.54419,174.47072,352.72778,171.834,352.72778,168.37436ZM247.79034,135.55405l-4.237-11.58594H240.181v11.58594h-5.96615V105.291h10.375c5.53386,0,8.82032,3.63151,8.82032,9.07812,0,3.76172-1.60026,6.70183-4.32292,8.21485l4.92838,12.97ZM240.181,118.82228h3.5013c2.42188,0,3.71875-1.81511,3.71875-4.237,0-2.50651-1.34114-4.10677-3.67578-4.10677H240.181Zm36.76144,9.944h5.66276c.17317,2.07552,1.38411,2.89713,2.9401,2.89713,1.33984,0,2.29167-.60546,2.29167-1.8164,0-1.47-1.21094-2.11849-3.15625-2.89584l-1.64323-.60546c-2.63672-.9948-5.57682-2.33464-5.57682-6.35547,0-4.27995,3.5026-6.48568,7.69531-6.48568,5.10156,0,7.69531,2.8112,7.95573,6.70182h-5.53386a2.2981,2.2981,0,0,0-2.42187-2.3776,1.82964,1.82964,0,0,0-2.03125,1.90234c0,1.29688,1.20963,1.81511,2.9401,2.50651l1.599.60547c2.681.95182,5.793,2.638,5.793,6.875,0,4.36589-3.63151,6.26823-7.95443,6.26823C279.96845,135.98634,277.07131,133.21941,276.94241,128.76629Zm59.18042,2.33463v4.45313H333.615a3.71557,3.71557,0,0,1-3.84766-2.2487c-1.168,1.73047-2.98307,2.681-5.793,2.681-4.10808,0-6.875-2.16146-6.875-6.18229,0-4.58333,3.41536-6.3125,6.918-6.918l4.4961-.69141V120.8978c0-1.85938-.90755-2.8099-2.42057-2.8099-1.60026,0-2.46485.99479-2.59506,2.85287H317.576c.25911-4.66927,3.37109-7.4362,8.47265-7.4362,4.4961,0,8.388,2.07552,8.388,7.52344v8.60286c0,.95182.38932,1.47005,1.20963,1.47005Zm-7.60937-4.97135-2.724.47526c-1.25391.21615-2.76693.82161-2.76693,2.724a2.02123,2.02123,0,0,0,2.20443,2.20443c1.47005,0,3.28646-.77865,3.28646-3.50131Zm10.89844-12.19271h5.40364l.51953,2.681h.388c1.08073-1.94531,2.37891-3.11328,5.44792-3.11328H352.382v5.88021a16.45123,16.45123,0,0,0-1.90235-.17318c-3.93489,0-5.14453,3.32943-5.14453,6.57162v9.77083H339.4119Zm14.24894,10.9388c0-7.263,3.89063-11.37109,9.51042-11.37109,4.36719,0,8.474,2.33464,8.94922,8.474H366.1986c-.30338-2.20443-1.42708-3.41537-3.02734-3.41537-2.11849,0-3.58724,1.72917-3.58724,6.3125,0,4.41016,1.38281,6.05209,3.63151,6.05209,1.513,0,2.63672-.77735,3.069-2.98308h5.92318c-.51953,5.36068-4.0638,8.04167-8.94922,8.04167C357.5085,135.98634,353.66084,132.13868,353.66084,124.87566Zm39.7138-3.84765v14.52606h-5.92188V122.23764c0-2.46354-1.34115-3.67448-2.98307-3.67448-1.64323,0-3.19922,1.168-3.19922,3.89063v13.10028h-5.92318V104.85872h5.92318v11.3698h.388a5.81491,5.81491,0,0,1,5.1888-2.724C390.86813,113.50456,393.37464,116.31576,393.37464,121.028ZM240.30988,174.03712h-6.09506v-30.263h6.09506Zm4.694-21.61719h5.40365l.51953,2.29167h.38932a5.80829,5.80829,0,0,1,5.1875-2.724c4.02084,0,6.52865,2.8112,6.52865,7.52344v14.526H257.1093v-13.3164c0-2.46355-1.33984-3.67448-2.98307-3.67448s-3.19922,1.168-3.19922,3.89062v13.10026h-5.92318Zm20.93935,14.82943h5.66276c.17317,2.07552,1.38411,2.89714,2.9401,2.89714,1.33985,0,2.29167-.60547,2.29167-1.81641,0-1.47005-1.21094-2.11849-3.15625-2.89583l-1.64323-.60547c-2.63672-.99479-5.57682-2.33464-5.57682-6.35547,0-4.28,3.5026-6.48568,7.69531-6.48568,5.10156,0,7.69531,2.8112,7.95573,6.70183h-5.53386a2.29811,2.29811,0,0,0-2.42187-2.37761,1.82965,1.82965,0,0,0-2.03125,1.90235c0,1.29687,1.20963,1.8151,2.9401,2.50651l1.599.60546c2.681.95183,5.793,2.638,5.793,6.875,0,4.36589-3.63151,6.26823-7.95443,6.26823C268.96922,174.46941,266.07208,171.70249,265.94318,167.24936Zm35.40131-20.96745a3.598,3.598,0,0,1,3.58854-3.54557,3.49649,3.49649,0,0,1,3.5013,3.54557,3.58024,3.58024,0,0,1-3.5013,3.54427A3.68778,3.68778,0,0,1,301.34449,146.28191Zm.60547,6.138h5.92318v21.61719H301.95Zm44.48955,21.61719h-5.40495l-.51823-2.29166H340.127a5.80988,5.80988,0,0,1-5.1875,2.724c-4.02083,0-6.52865-2.80989-6.52865-7.52213V152.41993H334.334v13.31641c0,2.46484,1.33985,3.67448,2.98307,3.67448s3.19922-1.16667,3.19922-3.89063V152.41993h5.92318Zm39.58176-6.78776H391.684c.17318,2.07552,1.38412,2.89714,2.94011,2.89714,1.33984,0,2.29166-.60547,2.29166-1.81641,0-1.47005-1.21094-2.11849-3.15625-2.89583l-1.64323-.60547c-2.63672-.99479-5.57682-2.33464-5.57682-6.35547,0-4.28,3.5026-6.48568,7.69531-6.48568,5.10157,0,7.69532,2.8112,7.95573,6.70183h-5.53385a2.29811,2.29811,0,0,0-2.42188-2.37761,1.82965,1.82965,0,0,0-2.03125,1.90235c0,1.29687,1.20964,1.8151,2.94011,2.50651l1.599.60546c2.681.95183,5.793,2.638,5.793,6.875,0,4.36589-3.63151,6.26823-7.95442,6.26823C389.04731,174.46941,386.15018,171.70249,386.02127,167.24936Zm-7.85911-.00456a3.02575,3.02575,0,0,1-3.2448,2.68555c-2.24869,0-3.5013-1.77344-3.63151-5.10156h12.36459a12.862,12.862,0,0,0,.08594-1.77344c.04427-8.21354-4.32292-11.06771-8.90495-11.06771-5.14584,0-9.33854,3.71875-9.33854,11.5,0,7.22005,3.71744,10.98177,9.46744,10.98177,4.74024,0,8.20215-2.49772,8.82911-7.22461ZM374.83143,156.528c1.77213,0,3.19922,1.38281,3.24218,4.28h-6.74479C371.545,158.127,372.84184,156.528,374.83143,156.528ZM139.89587,67.896a72,72,0,1,0,72,72A72,72,0,0,0,139.89587,67.896Zm0,121.92256A49.92231,49.92231,0,1,1,189.81818,139.896,49.92257,49.92257,0,0,1,139.89587,189.81856Zm-31.23153-84.12374h11.67408v37.606c0,2.39068.73117,4.44864,4.05429,4.44864,3.06023,0,3.99268-2.65768,3.99268-4.78137V105.69482h11.67v36.07791c0,8.4372-3.77908,14.952-15.72837,14.952-9.89134,0-15.66265-4.71974-15.66265-14.952V105.69482m35.98752,67.89611h25.96065v-9.994H156.32183V123.7194h-11.67v49.87153"
        transform="translate(-67.896 -67.896)" />
</svg>
